%YAML 1.1
%TAG !u! tag:unity3d.com,2011:
--- !u!74 &7400000
AnimationClip:
  m_ObjectHideFlags: 0
  m_PrefabParentObject: {fileID: 0}
  m_PrefabInternal: {fileID: 0}
  m_Name: algue-anim-02
  serializedVersion: 6
  m_Legacy: 0
  m_Compressed: 0
  m_UseHighQualityCurve: 1
  m_RotationCurves: []
  m_CompressedRotationCurves: []
  m_EulerCurves: []
  m_PositionCurves: []
  m_ScaleCurves: []
  m_FloatCurves: []
  m_PPtrCurves:
  - curve:
    - time: 0
      value: {fileID: 21300000, guid: 5e4133cbc282a0e4f88b00015eaa0647, type: 3}
    - time: 0.083333336
      value: {fileID: 21300000, guid: d492b8c2cd2037b4ebffbfe7829d3afd, type: 3}
    - time: 0.16666667
      value: {fileID: 21300000, guid: 4c6dc273d387a534f95f8f7b18991247, type: 3}
    - time: 0.25
      value: {fileID: 21300000, guid: 06dc4cecc4747ec4bb1917c637accd77, type: 3}
    - time: 0.33333334
      value: {fileID: 21300000, guid: 6f95c1fb0a8995f4bb92963c044d7845, type: 3}
    - time: 0.41666666
      value: {fileID: 21300000, guid: 3af8f49a10bde8249aa69313cbeba559, type: 3}
    - time: 0.5
      value: {fileID: 21300000, guid: b09d83667922b2c4582f7baf6cfa9687, type: 3}
    - time: 0.5833333
      value: {fileID: 21300000, guid: 9bab961106779b245bede59b0d4a329a, type: 3}
    - time: 0.6666667
      value: {fileID: 21300000, guid: 7e42eb4be053d5342841a960fe305e69, type: 3}
    - time: 0.75
      value: {fileID: 21300000, guid: 933176aacea24c04d9090d56bfdacad6, type: 3}
    - time: 0.8333333
      value: {fileID: 21300000, guid: 1deaa085dcb820f4cbc780fb7f42ab3c, type: 3}
    - time: 0.9166667
      value: {fileID: 21300000, guid: 487557852f56a6241ae743ae2a72472f, type: 3}
    - time: 1
      value: {fileID: 21300000, guid: c442a5d15bc534540a26a0653b58fcb0, type: 3}
    - time: 1.0833334
      value: {fileID: 21300000, guid: ab01d11e3c1bcdb4382388a6c7639175, type: 3}
    - time: 1.1666666
      value: {fileID: 21300000, guid: a28068e0f96c782499a96a420760359b, type: 3}
    - time: 1.25
      value: {fileID: 21300000, guid: 6ea9cbcf89bed0e4f82973a02da4450f, type: 3}
    - time: 1.3333334
      value: {fileID: 21300000, guid: 51bfc6450be238e418f935a0b86ebdac, type: 3}
    - time: 1.4166666
      value: {fileID: 21300000, guid: 214d29ee92b9f994a834ddfe82555c3f, type: 3}
    - time: 1.5
      value: {fileID: 21300000, guid: 77591922bc724514fb88dc0d5c8dd32f, type: 3}
    - time: 1.5833334
      value: {fileID: 21300000, guid: 03a18444bf0f59c4e87fd8e391254a20, type: 3}
    - time: 1.6666666
      value: {fileID: 21300000, guid: 9f43c444709cbf14795b212e5dfe92a6, type: 3}
    - time: 1.75
      value: {fileID: 21300000, guid: 95e2325d3088b6c4f84c361864a2919c, type: 3}
    - time: 1.8333334
      value: {fileID: 21300000, guid: 11acdbf7bf95fff45a02f841227ec44f, type: 3}
    - time: 1.9166666
      value: {fileID: 21300000, guid: 0bf8d440437f5c543a82151c17140dcf, type: 3}
    - time: 2
      value: {fileID: 21300000, guid: f085bb17f86811b47a06f1e77b458246, type: 3}
    - time: 2.0833333
      value: {fileID: 21300000, guid: 2deafdbc2d26ccb4aa1c7086bbdb916b, type: 3}
    - time: 2.1666667
      value: {fileID: 21300000, guid: f784cbb4c4b37d146baf40859b38a5ac, type: 3}
    - time: 2.25
      value: {fileID: 21300000, guid: 9e76a24767463e549b44d17ad00c31f3, type: 3}
    - time: 2.3333333
      value: {fileID: 21300000, guid: 628abeedbee45424b87a281360da2cd0, type: 3}
    - time: 2.4166667
      value: {fileID: 21300000, guid: 4f265ca3e30a5614fb813b7b2f7c7cbd, type: 3}
    - time: 2.5
      value: {fileID: 21300000, guid: f6b728d5b6089164abb5bca4d16a96ce, type: 3}
    - time: 2.5833333
      value: {fileID: 21300000, guid: 293163b67d66d244e91274bfb6418d1a, type: 3}
    - time: 2.6666667
      value: {fileID: 21300000, guid: 444029e38fd9a66499eb9dba77c32264, type: 3}
    - time: 2.75
      value: {fileID: 21300000, guid: efcd3bb3ed2f38447885b3a804d6cbf9, type: 3}
    - time: 2.8333333
      value: {fileID: 21300000, guid: 631c21fca7ff47b409ebb69f1f1ce97a, type: 3}
    - time: 2.9166667
      value: {fileID: 21300000, guid: 91087f6e190edcc4cabab59f24677349, type: 3}
    - time: 3
      value: {fileID: 21300000, guid: 2aaa1693bacb14344bab025fcb84b75b, type: 3}
    - time: 3.0833333
      value: {fileID: 21300000, guid: c7fc004943a2c4d46814ba1dc111bfca, type: 3}
    - time: 3.1666667
      value: {fileID: 21300000, guid: ffda56764c14422478049492db031709, type: 3}
    - time: 3.25
      value: {fileID: 21300000, guid: 46a8f44b9717ce64faa5916d7d2aea2a, type: 3}
    - time: 3.3333333
      value: {fileID: 21300000, guid: 0bb1a8b1c3db0294c81bfe21238372e1, type: 3}
    - time: 3.4166667
      value: {fileID: 21300000, guid: 9c6392475d8088440883e63e96394adc, type: 3}
    - time: 3.5
      value: {fileID: 21300000, guid: 14927a4ade3216b4db5d84aea8fc58fd, type: 3}
    - time: 3.5833333
      value: {fileID: 21300000, guid: 48378f6573d0f0242b174f8fb0061646, type: 3}
    - time: 3.6666667
      value: {fileID: 21300000, guid: ed02256feaeb16148b2cd6152530e58e, type: 3}
    - time: 3.75
      value: {fileID: 21300000, guid: 5defc29c40f50cc47b7ae639d97c6a78, type: 3}
    - time: 3.8333333
      value: {fileID: 21300000, guid: 6086f5dda1aac1e49837a1a4ec953655, type: 3}
    - time: 3.9166667
      value: {fileID: 21300000, guid: f8b92f73fb7c7194e8ce31b5a13382c2, type: 3}
    - time: 4
      value: {fileID: 21300000, guid: aea397447da1fee4fabce64d333454ec, type: 3}
    - time: 4.0833335
      value: {fileID: 21300000, guid: e7fd84b5b27d7ad4db7611b72a721476, type: 3}
    - time: 4.1666665
      value: {fileID: 21300000, guid: b1325ec2dd146204b97dbf94bf86ccb5, type: 3}
    - time: 4.25
      value: {fileID: 21300000, guid: 8eed69fe48cce4546a7c3872b1e0468a, type: 3}
    - time: 4.3333335
      value: {fileID: 21300000, guid: 7f9367c5cf782f946bac9d9a7e71979b, type: 3}
    - time: 4.4166665
      value: {fileID: 21300000, guid: 83ce588645c37a74f8f273b30247cf62, type: 3}
    - time: 4.5
      value: {fileID: 21300000, guid: e68454d450b474246bc03f41ed6d834c, type: 3}
    - time: 4.5833335
      value: {fileID: 21300000, guid: c15cb07b674d9634aaa56599439c7360, type: 3}
    - time: 4.6666665
      value: {fileID: 21300000, guid: 083e10784a7d3d54fb299d86080efa56, type: 3}
    - time: 4.75
      value: {fileID: 21300000, guid: 325dfc252342ce44b95060ab4ebc2fde, type: 3}
    - time: 4.8333335
      value: {fileID: 21300000, guid: cbcbabacbed25844e838c4cc1e7dc882, type: 3}
    - time: 4.9166665
      value: {fileID: 21300000, guid: 43f970b891090c948b85df66c0639955, type: 3}
    - time: 5
      value: {fileID: 21300000, guid: 9ca47ec866694fe46a5bdb6bebaef564, type: 3}
    - time: 5.0833335
      value: {fileID: 21300000, guid: f45e25106091a504e965e7243729edea, type: 3}
    - time: 5.1666665
      value: {fileID: 21300000, guid: 0e19ca8270e0e2b429dbe06a0b430c7d, type: 3}
    - time: 5.25
      value: {fileID: 21300000, guid: d3aeace751a61f1478ead37dafef228d, type: 3}
    - time: 5.3333335
      value: {fileID: 21300000, guid: 0aff248e9d1478443a3dcead5798c28e, type: 3}
    - time: 5.4166665
      value: {fileID: 21300000, guid: 44b0514a5b619244d83b71d87aaf8a4b, type: 3}
    - time: 5.5
      value: {fileID: 21300000, guid: fae72c11a5d59b84298f8b1b802d9fed, type: 3}
    - time: 5.5833335
      value: {fileID: 21300000, guid: 32698b2dad8d45c488a418ea71718b6d, type: 3}
    - time: 5.6666665
      value: {fileID: 21300000, guid: 7c473538dc601a34682be9197c8850a2, type: 3}
    - time: 5.75
      value: {fileID: 21300000, guid: e681d44a59bd61f4d8343e30f6828957, type: 3}
    - time: 5.8333335
      value: {fileID: 21300000, guid: 9d1c26945f5f7bc45a82c7a0c5f0feb6, type: 3}
    - time: 5.9166665
      value: {fileID: 21300000, guid: e2b85b1b5d283cc4d92ebd89a059b67c, type: 3}
    - time: 6
      value: {fileID: 21300000, guid: 7fd193a75974ff04f825329066638a75, type: 3}
    - time: 6.0833335
      value: {fileID: 21300000, guid: 71fb4a64359cf8c4cb81de64055ffe66, type: 3}
    - time: 6.1666665
      value: {fileID: 21300000, guid: 380f9a25ab04ac249b24816a7746ef68, type: 3}
    - time: 6.25
      value: {fileID: 21300000, guid: abdf5f98ccf67324094a932ca4dec0a7, type: 3}
    - time: 6.3333335
      value: {fileID: 21300000, guid: 15d3a87132d9d534ab6df65e72f2cbb3, type: 3}
    - time: 6.4166665
      value: {fileID: 21300000, guid: 4c804d9c35de0584abf91d5f2f690bb1, type: 3}
    - time: 6.5
      value: {fileID: 21300000, guid: 4585f347b3951db41bf3f3d729c1fd12, type: 3}
    - time: 6.5833335
      value: {fileID: 21300000, guid: fd8e18477cc0520439df6eba3837ff48, type: 3}
    - time: 6.6666665
      value: {fileID: 21300000, guid: d23c28072a6b08e45aa70516f0818e6c, type: 3}
    - time: 6.75
      value: {fileID: 21300000, guid: 14c03f33562b6c943bc455789b3f5584, type: 3}
    - time: 6.8333335
      value: {fileID: 21300000, guid: 93cd69caf303ac14db0e38bd32e85ff3, type: 3}
    - time: 6.9166665
      value: {fileID: 21300000, guid: e82c79131fba1894391e4014ff2a7aa1, type: 3}
    - time: 7
      value: {fileID: 21300000, guid: 9d4de4247414e114cb642f85939ac5b1, type: 3}
    - time: 7.0833335
      value: {fileID: 21300000, guid: d0e90539aab84b64285cdb7327c97ba8, type: 3}
    - time: 7.1666665
      value: {fileID: 21300000, guid: ba282abc4dc55dd4e900318605a8209a, type: 3}
    - time: 7.25
      value: {fileID: 21300000, guid: 00652f5ca7a408747a4785a1cee16c4f, type: 3}
    - time: 7.3333335
      value: {fileID: 21300000, guid: a6053b098b673e84db9eaa894121bb8a, type: 3}
    - time: 7.4166665
      value: {fileID: 21300000, guid: 9e216463b58a13f439a99dcf4e79e3dd, type: 3}
    - time: 7.5
      value: {fileID: 21300000, guid: 59ff4cdae248af64293966a10b10a285, type: 3}
    - time: 7.5833335
      value: {fileID: 21300000, guid: 64e671381345a144fa047ed4aae0147e, type: 3}
    - time: 7.6666665
      value: {fileID: 21300000, guid: 1a2a07d421dd24449b72c27f4b74b451, type: 3}
    - time: 7.75
      value: {fileID: 21300000, guid: 7e1a8c09d45d8b240895da0cd9509f00, type: 3}
    - time: 7.8333335
      value: {fileID: 21300000, guid: 596bb17643e55d445b52b68c1032dc12, type: 3}
    - time: 7.9166665
      value: {fileID: 21300000, guid: bb0b1a1f16193f449b7ec295e7dd9e46, type: 3}
    - time: 8
      value: {fileID: 21300000, guid: fe5dee107759a0e4ca02359d62d9ff7e, type: 3}
    - time: 8.083333
      value: {fileID: 21300000, guid: 388399e592452eb4f8420376ca83d9fd, type: 3}
    - time: 8.166667
      value: {fileID: 21300000, guid: 72e7d14db76b1104c8548b450637d61b, type: 3}
    - time: 8.25
      value: {fileID: 21300000, guid: 180fbbfd6d7f6794b9fdb8ddc8aac199, type: 3}
    - time: 8.333333
      value: {fileID: 21300000, guid: a4b8e097d89923744b15811b3c475d07, type: 3}
    - time: 8.416667
      value: {fileID: 21300000, guid: 140e8f9dafb7ba846b6c72dedf0324b2, type: 3}
    - time: 8.5
      value: {fileID: 21300000, guid: 156f3a9d9f27a7845ace443890de01f2, type: 3}
    - time: 8.583333
      value: {fileID: 21300000, guid: d37fe1e47eafb024db9b8015264305ac, type: 3}
    - time: 8.666667
      value: {fileID: 21300000, guid: df1c0b0607ebb7d4d92c0d42073553d0, type: 3}
    - time: 8.75
      value: {fileID: 21300000, guid: 63d4bea9ac2ab3b4992e4e6c37cf7f52, type: 3}
    - time: 8.833333
      value: {fileID: 21300000, guid: 34912da6fedf8db488cfdb640a21e687, type: 3}
    - time: 8.916667
      value: {fileID: 21300000, guid: 04641d66713111a4e911d657709df1b6, type: 3}
    - time: 9
      value: {fileID: 21300000, guid: f2760062fbcde8d4594f422a2abf39e1, type: 3}
    - time: 9.083333
      value: {fileID: 21300000, guid: e64f595e873635b479d3d3d8ac498e9d, type: 3}
    - time: 9.166667
      value: {fileID: 21300000, guid: 62e87f4e84a93a54e970b1bb9b2c7952, type: 3}
    - time: 9.25
      value: {fileID: 21300000, guid: 3d7b1a75fa5a81b4aa23fc8626b5b3c3, type: 3}
    - time: 9.333333
      value: {fileID: 21300000, guid: 96807f756aed80f4d8944a51ad8d582f, type: 3}
    - time: 9.416667
      value: {fileID: 21300000, guid: b8010b981d419cd4fa042006c6e68494, type: 3}
    - time: 9.5
      value: {fileID: 21300000, guid: 153197763b32009499c6b21f59bf4438, type: 3}
    - time: 9.583333
      value: {fileID: 21300000, guid: a7fd98ebc5c223f4eaf21427f7cf939f, type: 3}
    - time: 9.666667
      value: {fileID: 21300000, guid: f1feb37db8302054d90c7e7b4b0d7244, type: 3}
    - time: 9.75
      value: {fileID: 21300000, guid: 7fb38343c04736b47900163d9408b3e8, type: 3}
    - time: 9.833333
      value: {fileID: 21300000, guid: 3993512b3ec0b7a4a9537f4770809726, type: 3}
    - time: 9.916667
      value: {fileID: 21300000, guid: 3cbf98f2347f9c94298fa3e707fa24cb, type: 3}
    - time: 10
      value: {fileID: 21300000, guid: 2eb2ecd5d08ae95408babb0b2bb91a8e, type: 3}
    - time: 10.083333
      value: {fileID: 21300000, guid: 29f5e091efd938c4bbaaea207f4ec261, type: 3}
    - time: 10.166667
      value: {fileID: 21300000, guid: f675a468f5a62514fa69e10fa1573381, type: 3}
    - time: 10.25
      value: {fileID: 21300000, guid: 3b83a3620a1c21f4ba10801b578a1bdd, type: 3}
    - time: 10.333333
      value: {fileID: 21300000, guid: 2caffd5be13a7ef449875948a6eef174, type: 3}
    - time: 10.416667
      value: {fileID: 21300000, guid: 3cb3143eb1d250a41b1970a906aae58e, type: 3}
    - time: 10.5
      value: {fileID: 21300000, guid: 4310dc95e52bcb048915303623da190b, type: 3}
    - time: 10.583333
      value: {fileID: 21300000, guid: 0ce22ae2070a29547a99a375dd630ac5, type: 3}
    - time: 10.666667
      value: {fileID: 21300000, guid: ea7e7399823591b47a04066b50f3be28, type: 3}
    - time: 10.75
      value: {fileID: 21300000, guid: 09c281d182fc17f49a5e387807b0881f, type: 3}
    - time: 10.833333
      value: {fileID: 21300000, guid: 893c3326503f8c046b321956ccb7cea9, type: 3}
    - time: 10.916667
      value: {fileID: 21300000, guid: 55370ecec25c3934ea249bd2f2b344c0, type: 3}
    - time: 11
      value: {fileID: 21300000, guid: 698f32d600b8ae142b475730ed0f6e34, type: 3}
    - time: 11.083333
      value: {fileID: 21300000, guid: 2f0db1bef5e9ffc4ba0f8b680ca372a9, type: 3}
    - time: 11.166667
      value: {fileID: 21300000, guid: fa1879b0777981443b22fd247c0e72b5, type: 3}
    - time: 11.25
      value: {fileID: 21300000, guid: e244aa408be21794185b4b896d4f4a79, type: 3}
    - time: 11.333333
      value: {fileID: 21300000, guid: cc0b74eff251b7849b6e926dac5c75eb, type: 3}
    - time: 11.416667
      value: {fileID: 21300000, guid: 1a4a83f46598c934da0d620d6df9d844, type: 3}
    - time: 11.5
      value: {fileID: 21300000, guid: d22e2eb6cd6024f43aa630460c9cd822, type: 3}
    - time: 11.583333
      value: {fileID: 21300000, guid: 6ad348215147e2643ba7bbfd1c4825d5, type: 3}
    - time: 11.666667
      value: {fileID: 21300000, guid: 054c976d0ca085340b015c12ab4d85eb, type: 3}
    - time: 11.75
      value: {fileID: 21300000, guid: 83561219af6a3e2499c50bb37604124e, type: 3}
    - time: 11.833333
      value: {fileID: 21300000, guid: 458b7b2ba7e23b94fbfa073d5a5cdff5, type: 3}
    - time: 11.916667
      value: {fileID: 21300000, guid: 0487003257a6aaf4a9613c75cd70c92f, type: 3}
    - time: 12
      value: {fileID: 21300000, guid: 59d51f18cdea2b843b42ea2d5fdac583, type: 3}
    - time: 12.083333
      value: {fileID: 21300000, guid: a8221f9f1cf2622468a30d20de9ad23b, type: 3}
    - time: 12.166667
      value: {fileID: 21300000, guid: 2472ee8c7b4084547a3e2abcf5d5cc57, type: 3}
    - time: 12.25
      value: {fileID: 21300000, guid: 1b3cf1c3336120842818514e14ab33a6, type: 3}
    - time: 12.333333
      value: {fileID: 21300000, guid: b2950815011efca4eabbf8c91dfe50d3, type: 3}
    - time: 12.416667
      value: {fileID: 21300000, guid: da447fca4018e9b40a783c4542312ab0, type: 3}
    attribute: m_Sprite
    path: 
    classID: 212
    script: {fileID: 0}
  m_SampleRate: 12
  m_WrapMode: 0
  m_Bounds:
    m_Center: {x: 0, y: 0, z: 0}
    m_Extent: {x: 0, y: 0, z: 0}
  m_ClipBindingConstant:
    genericBindings:
    - serializedVersion: 2
      path: 0
      attribute: 0
      script: {fileID: 0}
      typeID: 212
      customType: 23
      isPPtrCurve: 1
    pptrCurveMapping:
    - {fileID: 21300000, guid: 5e4133cbc282a0e4f88b00015eaa0647, type: 3}
    - {fileID: 21300000, guid: d492b8c2cd2037b4ebffbfe7829d3afd, type: 3}
    - {fileID: 21300000, guid: 4c6dc273d387a534f95f8f7b18991247, type: 3}
    - {fileID: 21300000, guid: 06dc4cecc4747ec4bb1917c637accd77, type: 3}
    - {fileID: 21300000, guid: 6f95c1fb0a8995f4bb92963c044d7845, type: 3}
    - {fileID: 21300000, guid: 3af8f49a10bde8249aa69313cbeba559, type: 3}
    - {fileID: 21300000, guid: b09d83667922b2c4582f7baf6cfa9687, type: 3}
    - {fileID: 21300000, guid: 9bab961106779b245bede59b0d4a329a, type: 3}
    - {fileID: 21300000, guid: 7e42eb4be053d5342841a960fe305e69, type: 3}
    - {fileID: 21300000, guid: 933176aacea24c04d9090d56bfdacad6, type: 3}
    - {fileID: 21300000, guid: 1deaa085dcb820f4cbc780fb7f42ab3c, type: 3}
    - {fileID: 21300000, guid: 487557852f56a6241ae743ae2a72472f, type: 3}
    - {fileID: 21300000, guid: c442a5d15bc534540a26a0653b58fcb0, type: 3}
    - {fileID: 21300000, guid: ab01d11e3c1bcdb4382388a6c7639175, type: 3}
    - {fileID: 21300000, guid: a28068e0f96c782499a96a420760359b, type: 3}
    - {fileID: 21300000, guid: 6ea9cbcf89bed0e4f82973a02da4450f, type: 3}
    - {fileID: 21300000, guid: 51bfc6450be238e418f935a0b86ebdac, type: 3}
    - {fileID: 21300000, guid: 214d29ee92b9f994a834ddfe82555c3f, type: 3}
    - {fileID: 21300000, guid: 77591922bc724514fb88dc0d5c8dd32f, type: 3}
    - {fileID: 21300000, guid: 03a18444bf0f59c4e87fd8e391254a20, type: 3}
    - {fileID: 21300000, guid: 9f43c444709cbf14795b212e5dfe92a6, type: 3}
    - {fileID: 21300000, guid: 95e2325d3088b6c4f84c361864a2919c, type: 3}
    - {fileID: 21300000, guid: 11acdbf7bf95fff45a02f841227ec44f, type: 3}
    - {fileID: 21300000, guid: 0bf8d440437f5c543a82151c17140dcf, type: 3}
    - {fileID: 21300000, guid: f085bb17f86811b47a06f1e77b458246, type: 3}
    - {fileID: 21300000, guid: 2deafdbc2d26ccb4aa1c7086bbdb916b, type: 3}
    - {fileID: 21300000, guid: f784cbb4c4b37d146baf40859b38a5ac, type: 3}
    - {fileID: 21300000, guid: 9e76a24767463e549b44d17ad00c31f3, type: 3}
    - {fileID: 21300000, guid: 628abeedbee45424b87a281360da2cd0, type: 3}
    - {fileID: 21300000, guid: 4f265ca3e30a5614fb813b7b2f7c7cbd, type: 3}
    - {fileID: 21300000, guid: f6b728d5b6089164abb5bca4d16a96ce, type: 3}
    - {fileID: 21300000, guid: 293163b67d66d244e91274bfb6418d1a, type: 3}
    - {fileID: 21300000, guid: 444029e38fd9a66499eb9dba77c32264, type: 3}
    - {fileID: 21300000, guid: efcd3bb3ed2f38447885b3a804d6cbf9, type: 3}
    - {fileID: 21300000, guid: 631c21fca7ff47b409ebb69f1f1ce97a, type: 3}
    - {fileID: 21300000, guid: 91087f6e190edcc4cabab59f24677349, type: 3}
    - {fileID: 21300000, guid: 2aaa1693bacb14344bab025fcb84b75b, type: 3}
    - {fileID: 21300000, guid: c7fc004943a2c4d46814ba1dc111bfca, type: 3}
    - {fileID: 21300000, guid: ffda56764c14422478049492db031709, type: 3}
    - {fileID: 21300000, guid: 46a8f44b9717ce64faa5916d7d2aea2a, type: 3}
    - {fileID: 21300000, guid: 0bb1a8b1c3db0294c81bfe21238372e1, type: 3}
    - {fileID: 21300000, guid: 9c6392475d8088440883e63e96394adc, type: 3}
    - {fileID: 21300000, guid: 14927a4ade3216b4db5d84aea8fc58fd, type: 3}
    - {fileID: 21300000, guid: 48378f6573d0f0242b174f8fb0061646, type: 3}
    - {fileID: 21300000, guid: ed02256feaeb16148b2cd6152530e58e, type: 3}
    - {fileID: 21300000, guid: 5defc29c40f50cc47b7ae639d97c6a78, type: 3}
    - {fileID: 21300000, guid: 6086f5dda1aac1e49837a1a4ec953655, type: 3}
    - {fileID: 21300000, guid: f8b92f73fb7c7194e8ce31b5a13382c2, type: 3}
    - {fileID: 21300000, guid: aea397447da1fee4fabce64d333454ec, type: 3}
    - {fileID: 21300000, guid: e7fd84b5b27d7ad4db7611b72a721476, type: 3}
    - {fileID: 21300000, guid: b1325ec2dd146204b97dbf94bf86ccb5, type: 3}
    - {fileID: 21300000, guid: 8eed69fe48cce4546a7c3872b1e0468a, type: 3}
    - {fileID: 21300000, guid: 7f9367c5cf782f946bac9d9a7e71979b, type: 3}
    - {fileID: 21300000, guid: 83ce588645c37a74f8f273b30247cf62, type: 3}
    - {fileID: 21300000, guid: e68454d450b474246bc03f41ed6d834c, type: 3}
    - {fileID: 21300000, guid: c15cb07b674d9634aaa56599439c7360, type: 3}
    - {fileID: 21300000, guid: 083e10784a7d3d54fb299d86080efa56, type: 3}
    - {fileID: 21300000, guid: 325dfc252342ce44b95060ab4ebc2fde, type: 3}
    - {fileID: 21300000, guid: cbcbabacbed25844e838c4cc1e7dc882, type: 3}
    - {fileID: 21300000, guid: 43f970b891090c948b85df66c0639955, type: 3}
    - {fileID: 21300000, guid: 9ca47ec866694fe46a5bdb6bebaef564, type: 3}
    - {fileID: 21300000, guid: f45e25106091a504e965e7243729edea, type: 3}
    - {fileID: 21300000, guid: 0e19ca8270e0e2b429dbe06a0b430c7d, type: 3}
    - {fileID: 21300000, guid: d3aeace751a61f1478ead37dafef228d, type: 3}
    - {fileID: 21300000, guid: 0aff248e9d1478443a3dcead5798c28e, type: 3}
    - {fileID: 21300000, guid: 44b0514a5b619244d83b71d87aaf8a4b, type: 3}
    - {fileID: 21300000, guid: fae72c11a5d59b84298f8b1b802d9fed, type: 3}
    - {fileID: 21300000, guid: 32698b2dad8d45c488a418ea71718b6d, type: 3}
    - {fileID: 21300000, guid: 7c473538dc601a34682be9197c8850a2, type: 3}
    - {fileID: 21300000, guid: e681d44a59bd61f4d8343e30f6828957, type: 3}
    - {fileID: 21300000, guid: 9d1c26945f5f7bc45a82c7a0c5f0feb6, type: 3}
    - {fileID: 21300000, guid: e2b85b1b5d283cc4d92ebd89a059b67c, type: 3}
    - {fileID: 21300000, guid: 7fd193a75974ff04f825329066638a75, type: 3}
    - {fileID: 21300000, guid: 71fb4a64359cf8c4cb81de64055ffe66, type: 3}
    - {fileID: 21300000, guid: 380f9a25ab04ac249b24816a7746ef68, type: 3}
    - {fileID: 21300000, guid: abdf5f98ccf67324094a932ca4dec0a7, type: 3}
    - {fileID: 21300000, guid: 15d3a87132d9d534ab6df65e72f2cbb3, type: 3}
    - {fileID: 21300000, guid: 4c804d9c35de0584abf91d5f2f690bb1, type: 3}
    - {fileID: 21300000, guid: 4585f347b3951db41bf3f3d729c1fd12, type: 3}
    - {fileID: 21300000, guid: fd8e18477cc0520439df6eba3837ff48, type: 3}
    - {fileID: 21300000, guid: d23c28072a6b08e45aa70516f0818e6c, type: 3}
    - {fileID: 21300000, guid: 14c03f33562b6c943bc455789b3f5584, type: 3}
    - {fileID: 21300000, guid: 93cd69caf303ac14db0e38bd32e85ff3, type: 3}
    - {fileID: 21300000, guid: e82c79131fba1894391e4014ff2a7aa1, type: 3}
    - {fileID: 21300000, guid: 9d4de4247414e114cb642f85939ac5b1, type: 3}
    - {fileID: 21300000, guid: d0e90539aab84b64285cdb7327c97ba8, type: 3}
    - {fileID: 21300000, guid: ba282abc4dc55dd4e900318605a8209a, type: 3}
    - {fileID: 21300000, guid: 00652f5ca7a408747a4785a1cee16c4f, type: 3}
    - {fileID: 21300000, guid: a6053b098b673e84db9eaa894121bb8a, type: 3}
    - {fileID: 21300000, guid: 9e216463b58a13f439a99dcf4e79e3dd, type: 3}
    - {fileID: 21300000, guid: 59ff4cdae248af64293966a10b10a285, type: 3}
    - {fileID: 21300000, guid: 64e671381345a144fa047ed4aae0147e, type: 3}
    - {fileID: 21300000, guid: 1a2a07d421dd24449b72c27f4b74b451, type: 3}
    - {fileID: 21300000, guid: 7e1a8c09d45d8b240895da0cd9509f00, type: 3}
    - {fileID: 21300000, guid: 596bb17643e55d445b52b68c1032dc12, type: 3}
    - {fileID: 21300000, guid: bb0b1a1f16193f449b7ec295e7dd9e46, type: 3}
    - {fileID: 21300000, guid: fe5dee107759a0e4ca02359d62d9ff7e, type: 3}
    - {fileID: 21300000, guid: 388399e592452eb4f8420376ca83d9fd, type: 3}
    - {fileID: 21300000, guid: 72e7d14db76b1104c8548b450637d61b, type: 3}
    - {fileID: 21300000, guid: 180fbbfd6d7f6794b9fdb8ddc8aac199, type: 3}
    - {fileID: 21300000, guid: a4b8e097d89923744b15811b3c475d07, type: 3}
    - {fileID: 21300000, guid: 140e8f9dafb7ba846b6c72dedf0324b2, type: 3}
    - {fileID: 21300000, guid: 156f3a9d9f27a7845ace443890de01f2, type: 3}
    - {fileID: 21300000, guid: d37fe1e47eafb024db9b8015264305ac, type: 3}
    - {fileID: 21300000, guid: df1c0b0607ebb7d4d92c0d42073553d0, type: 3}
    - {fileID: 21300000, guid: 63d4bea9ac2ab3b4992e4e6c37cf7f52, type: 3}
    - {fileID: 21300000, guid: 34912da6fedf8db488cfdb640a21e687, type: 3}
    - {fileID: 21300000, guid: 04641d66713111a4e911d657709df1b6, type: 3}
    - {fileID: 21300000, guid: f2760062fbcde8d4594f422a2abf39e1, type: 3}
    - {fileID: 21300000, guid: e64f595e873635b479d3d3d8ac498e9d, type: 3}
    - {fileID: 21300000, guid: 62e87f4e84a93a54e970b1bb9b2c7952, type: 3}
    - {fileID: 21300000, guid: 3d7b1a75fa5a81b4aa23fc8626b5b3c3, type: 3}
    - {fileID: 21300000, guid: 96807f756aed80f4d8944a51ad8d582f, type: 3}
    - {fileID: 21300000, guid: b8010b981d419cd4fa042006c6e68494, type: 3}
    - {fileID: 21300000, guid: 153197763b32009499c6b21f59bf4438, type: 3}
    - {fileID: 21300000, guid: a7fd98ebc5c223f4eaf21427f7cf939f, type: 3}
    - {fileID: 21300000, guid: f1feb37db8302054d90c7e7b4b0d7244, type: 3}
    - {fileID: 21300000, guid: 7fb38343c04736b47900163d9408b3e8, type: 3}
    - {fileID: 21300000, guid: 3993512b3ec0b7a4a9537f4770809726, type: 3}
    - {fileID: 21300000, guid: 3cbf98f2347f9c94298fa3e707fa24cb, type: 3}
    - {fileID: 21300000, guid: 2eb2ecd5d08ae95408babb0b2bb91a8e, type: 3}
    - {fileID: 21300000, guid: 29f5e091efd938c4bbaaea207f4ec261, type: 3}
    - {fileID: 21300000, guid: f675a468f5a62514fa69e10fa1573381, type: 3}
    - {fileID: 21300000, guid: 3b83a3620a1c21f4ba10801b578a1bdd, type: 3}
    - {fileID: 21300000, guid: 2caffd5be13a7ef449875948a6eef174, type: 3}
    - {fileID: 21300000, guid: 3cb3143eb1d250a41b1970a906aae58e, type: 3}
    - {fileID: 21300000, guid: 4310dc95e52bcb048915303623da190b, type: 3}
    - {fileID: 21300000, guid: 0ce22ae2070a29547a99a375dd630ac5, type: 3}
    - {fileID: 21300000, guid: ea7e7399823591b47a04066b50f3be28, type: 3}
    - {fileID: 21300000, guid: 09c281d182fc17f49a5e387807b0881f, type: 3}
    - {fileID: 21300000, guid: 893c3326503f8c046b321956ccb7cea9, type: 3}
    - {fileID: 21300000, guid: 55370ecec25c3934ea249bd2f2b344c0, type: 3}
    - {fileID: 21300000, guid: 698f32d600b8ae142b475730ed0f6e34, type: 3}
    - {fileID: 21300000, guid: 2f0db1bef5e9ffc4ba0f8b680ca372a9, type: 3}
    - {fileID: 21300000, guid: fa1879b0777981443b22fd247c0e72b5, type: 3}
    - {fileID: 21300000, guid: e244aa408be21794185b4b896d4f4a79, type: 3}
    - {fileID: 21300000, guid: cc0b74eff251b7849b6e926dac5c75eb, type: 3}
    - {fileID: 21300000, guid: 1a4a83f46598c934da0d620d6df9d844, type: 3}
    - {fileID: 21300000, guid: d22e2eb6cd6024f43aa630460c9cd822, type: 3}
    - {fileID: 21300000, guid: 6ad348215147e2643ba7bbfd1c4825d5, type: 3}
    - {fileID: 21300000, guid: 054c976d0ca085340b015c12ab4d85eb, type: 3}
    - {fileID: 21300000, guid: 83561219af6a3e2499c50bb37604124e, type: 3}
    - {fileID: 21300000, guid: 458b7b2ba7e23b94fbfa073d5a5cdff5, type: 3}
    - {fileID: 21300000, guid: 0487003257a6aaf4a9613c75cd70c92f, type: 3}
    - {fileID: 21300000, guid: 59d51f18cdea2b843b42ea2d5fdac583, type: 3}
    - {fileID: 21300000, guid: a8221f9f1cf2622468a30d20de9ad23b, type: 3}
    - {fileID: 21300000, guid: 2472ee8c7b4084547a3e2abcf5d5cc57, type: 3}
    - {fileID: 21300000, guid: 1b3cf1c3336120842818514e14ab33a6, type: 3}
    - {fileID: 21300000, guid: b2950815011efca4eabbf8c91dfe50d3, type: 3}
    - {fileID: 21300000, guid: da447fca4018e9b40a783c4542312ab0, type: 3}
  m_AnimationClipSettings:
    serializedVersion: 2
    m_AdditiveReferencePoseClip: {fileID: 0}
    m_AdditiveReferencePoseTime: 0
    m_StartTime: 0
    m_StopTime: 12.5
    m_OrientationOffsetY: 0
    m_Level: 0
    m_CycleOffset: 0
    m_HasAdditiveReferencePose: 0
    m_LoopTime: 1
    m_LoopBlend: 0
    m_LoopBlendOrientation: 0
    m_LoopBlendPositionY: 0
    m_LoopBlendPositionXZ: 0
    m_KeepOriginalOrientation: 0
    m_KeepOriginalPositionY: 1
    m_KeepOriginalPositionXZ: 0
    m_HeightFromFeet: 0
    m_Mirror: 0
  m_EditorCurves: []
  m_EulerEditorCurves: []
  m_HasGenericRootTransform: 0
  m_HasMotionFloatCurves: 0
  m_GenerateMotionCurves: 0
  m_Events: []
