%YAML 1.1
%TAG !u! tag:unity3d.com,2011:
--- !u!114 &11400000
MonoBehaviour:
  m_ObjectHideFlags: 0
  m_PrefabParentObject: {fileID: 0}
  m_PrefabInternal: {fileID: 0}
  m_GameObject: {fileID: 0}
  m_Enabled: 1
  m_EditorHideFlags: 0
  m_Script: {fileID: 11500000, guid: cbf2b71a297b84564b930517da7ba2d8, type: 3}
  m_Name: New ShakePreset
  m_EditorClassIdentifier: 
  Strength: {x: 10, y: 10, z: 0}
  Duration: 0.5
  Vibrato: 4
  Randomness: 0.1
  Smoothness: 0.015
  UseRandomInitialAngle: 1
  InitialAngle: 0
  Rotation: {x: 0, y: 0, z: 0}
  IgnoreTimeScale: 0
